{
  "elements": [
    {
      "id": "P123",
      "code": "PROD-001",
      "name": "Produto A",
      "description": "Este é um ótimo produto",
      "reviews": [
        {
          "id": "R1",
          "name": "João Silva",
          "description": "Ótimo produto!",
          "rating": 5,
          "date": "2023-07-11T10:30:00"
        },
        {
          "id": "R2",
          "name": "Maria Souza",
          "description": "Excelente produto!",
          "rating": 4,
          "date": "2023-07-10T15:45:00"
        }
      ]
    },
    {
      "id": "P124",
      "code": "PROD-002",
      "name": "Produto B",
      "description": "Este é outro produto incrível",
      "reviews": [
        {
          "id": "R3",
          "name": "Pedro Santos",
          "description": "Muito bom!",
          "rating": 4,
          "date": "2023-07-12T11:15:00"
        },
        {
          "id": "R4",
          "name": "Ana Oliveira",
          "description": "Adorei!",
          "rating": 5,
          "date": "2023-07-09T14:20:00"
        }
      ]
    },
    {
      "id": "P125",
      "code": "PROD-003",
      "name": "Produto C",
      "description": "Este produto é muito útil",
      "reviews": [
        {
          "id": "R5",
          "name": "Carlos Rodrigues",
          "description": "Recomendo!",
          "rating": 4,
          "date": "2023-07-08T16:55:00"
        },
        {
          "id": "R6",
          "name": "Juliana Martins",
          "description": "Bom custo-benefício",
          "rating": 3,
          "date": "2023-07-07T09:10:00"
        }
      ]
    },
    {
      "id": "P126",
      "code": "PROD-004",
      "name": "Produto D",
      "description": "Este produto é muito versátil",
      "reviews": [
        {
          "id": "R7",
          "name": "Gustavo Alves",
          "description": "Satisfeito!",
          "rating": 5,
          "date": "2023-07-06T08:25:00"
        },
        {
          "id": "R8",
          "name": "Patrícia Costa",
          "description": "Ótima qualidade",
          "rating": 4,
          "date": "2023-07-05T12:40:00"
        }
      ]
    },
    {
      "id": "P127",
      "code": "PROD-005",
      "name": "Produto E",
      "description": "Este produto é resistente",
      "reviews": [
        {
          "id": "R9",
          "name": "Fernando Pereira",
          "description": "Muito resistente!",
          "rating": 5,
          "date": "2023-07-04T17:30:00"
        },
        {
          "id": "R10",
          "name": "Camila Ferreira",
          "description": "Aprovado!",
          "rating": 4,
          "date": "2023-07-03T19:15:00"
        }
      ]
    },
    {
      "id": "P128",
      "code": "PROD-006",
      "name": "Produto F",
      "description": "Este produto é elegante",
      "reviews": [
        {
          "id": "R11",
          "name": "Ricardo Ribeiro",
          "description": "Muito elegante!",
          "rating": 5,
          "date": "2023-07-02T14:50:00"
        },
        {
          "id": "R12",
          "name": "Isabela Nunes",
          "description": "Gostei muito",
          "rating": 4,
          "date": "2023-07-01T11:35:00"
        }
      ]
    },
    {
      "id": "P129",
      "code": "PROD-007",
      "name": "Produto G",
      "description": "Este produto é eficiente",
      "reviews": [
        {
          "id": "R13",
          "name": "Eduardo Lima",
          "description": "Muito eficiente!",
          "rating": 5,
          "date": "2023-06-30T09:20:00"
        },
        {
          "id": "R14",
          "name": "Mariana Barbosa",
          "description": "Cumpre o que promete",
          "rating": 4,
          "date": "2023-06-29T16:05:00"
        }
      ]
    },
    {
      "id": "P130",
      "code": "PROD-008",
      "name": "Produto H",
      "description": "Este produto é prático",
      "reviews": [
        {
          "id": "R15",
          "name": "Hugo Santos",
          "description": "Muito prático!",
          "rating": 5,
          "date": "2023-06-28T12:55:00"
        },
        {
          "id": "R16",
          "name": "Larissa Oliveira",
          "description": "Simples e útil",
          "rating": 4,
          "date": "2023-06-27T14:40:00"
        }
      ]
    },
    {
      "id": "P131",
      "code": "PROD-009",
      "name": "Produto I",
      "description": "Este produto é inovador",
      "reviews": [
        {
          "id": "R17",
          "name": "Fábio Almeida",
          "description": "Muito inovador!",
          "rating": 5,
          "date": "2023-06-26T11:30:00"
        },
        {
          "id": "R18",
          "name": "Beatriz Lima",
          "description": "Adorei a novidade",
          "rating": 4,
          "date": "2023-06-25T17:20:00"
        }
      ]
    },
    {
      "id": "P132",
      "code": "PROD-010",
      "name": "Produto J",
      "description": "Este produto é durável",
      "reviews": [
        {
          "id": "R19",
          "name": "Leonardo Martins",
          "description": "Muito durável!",
          "rating": 5,
          "date": "2023-06-24T08:10:00"
        },
        {
          "id": "R20",
          "name": "Gabriela Costa",
          "description": "Resistente e confiável",
          "rating": 4,
          "date": "2023-06-23T19:00:00"
        }
      ]
    }
  ],
  "currentPage": 0,
  "totalPages": 5,
  "pageSize": 10,
  "totalElements": 50
}